module rest-api

go 1.18

require (
	github.com/go-redis/redis v6.15.9+incompatible
	github.com/jinzhu/gorm v1.9.16
)

require (
	github.com/alicebob/gopher-json v0.0.0-20200520072559-a9ecdc9d1d3a // indirect
	github.com/alicebob/miniredis v2.5.0+incompatible // indirect
	github.com/davecgh/go-spew v1.1.1 // indirect
	github.com/elliotchance/redismock v1.5.3 // indirect
	github.com/gomodule/redigo v1.8.8 // indirect
	github.com/pmezard/go-difflib v1.0.0 // indirect
	github.com/stretchr/objx v0.5.0 // indirect
	github.com/stretchr/testify v1.8.2 // indirect
	github.com/yuin/gopher-lua v0.0.0-20220413183635-c841877397d8 // indirect
	golang.org/x/sys v0.4.0 // indirect
	golang.org/x/tools v0.5.1-0.20230111220935-a7f7db3f17fc // indirect
	golang.org/x/tools/cmd/cover v0.1.0-deprecated // indirect
	gopkg.in/yaml.v3 v3.0.1 // indirect
)

require (
	github.com/cespare/xxhash/v2 v2.1.2 // indirect
	github.com/dgryski/go-rendezvous v0.0.0-20200823014737-9f7001d12a5f // indirect
	github.com/go-redis/redis/v8 v8.11.5 // indirect
	github.com/gorilla/mux v1.8.0 // indirect
	github.com/jinzhu/inflection v1.0.0 // indirect
	github.com/joho/godotenv v1.4.0
	github.com/lib/pq v1.10.5 // indirect
)
